%YAML 1.1
%TAG !u! tag:unity3d.com,2011:
--- !u!114 &11400000
MonoBehaviour:
  m_ObjectHideFlags: 0
  m_CorrespondingSourceObject: {fileID: 0}
  m_PrefabInternal: {fileID: 0}
  m_GameObject: {fileID: 0}
  m_Enabled: 1
  m_EditorHideFlags: 0
  m_Script: {fileID: -1357528570, guid: e98d45d69e2c4936a7382af00fd45e58, type: 3}
  m_Name: Default Material Palette
  m_EditorClassIdentifier: 
  array:
  - {fileID: 2100008, guid: 6a3a3adae1f3844bdbb03aff7a7893e2, type: 3}
  - {fileID: 2100000, guid: cd71291c91c8cce499cb663b5db9970e, type: 2}
  - {fileID: 2100000, guid: ed389028d40603840b8d2a0a537b9da5, type: 3}
  - {fileID: 2100000, guid: 539165557a9d3744680bb21164bea45e, type: 2}
  - {fileID: 2100000, guid: 4dad30bbe2213eb4d8312f7bb6190866, type: 2}
  - {fileID: 2100000, guid: a0427cf339e5891468d5f2b433b2d44a, type: 2}
  - {fileID: 2100000, guid: bd2d742ee2ce7a740ae0cf992a38be74, type: 2}
  - {fileID: 2100000, guid: a5aaee4111611af43b5abbff184fe5fa, type: 2}
  - {fileID: 2100000, guid: 2910cb5b10ca30445bb3ca193d27482b, type: 2}
  - {fileID: 2100000, guid: eb7a82410eb83144aada5cd7acb13378, type: 2}
  - {fileID: 2100002, guid: 46f48e5f14eff41f9add98c2a52817b5, type: 3}
  - {fileID: 2100000, guid: fde21433f5159d445a046952045edc09, type: 2}
  - {fileID: 2100000, guid: a89a3a743a2a9134f949f10af3143f89, type: 2}
  - {fileID: 0}
  - {fileID: 2100000, guid: a0427cf339e5891468d5f2b433b2d44a, type: 2}
  - {fileID: 2100000, guid: c32f94151a2011e448694e01b69d1fc9, type: 2}
